<svg width="145" height="136" viewBox="0 0 145 136" fill="none" xmlns="http://www.w3.org/2000/svg">
<path d="M63.7353 56.57H45.9352C37.8509 48.946 26.0506 30.415 15.9905 30.415C7.743 30.415 1 37.1062 1 45.2685V79.6036C1 89.1831 8.92121 97.0403 18.6007 97.0403M97.124 43.6719C97.124 35.5097 90.381 28.8184 82.1154 28.8184L72.1097 36.2093L62.1039 28.8184C53.8564 28.8184 47.0953 35.4917 47.0953 43.6719M72.1278 1.33594C78.5445 1.33594 83.7649 6.48442 83.7649 12.8528C83.7649 19.2211 78.5626 24.3696 72.1278 24.3696C65.6929 24.3696 60.4907 19.2211 60.4907 12.8528C60.4907 6.48442 65.711 1.33594 72.1278 1.33594ZM15.9905 2.25082C22.4072 2.25082 27.6276 7.39931 27.6276 13.7676C27.6276 20.136 22.4253 25.2845 15.9905 25.2845C9.55564 25.2845 4.35337 20.118 4.35337 13.7497C4.35337 7.38137 9.55564 2.25082 15.9905 2.25082Z" stroke="white" stroke-width="1.5" stroke-linecap="round" stroke-linejoin="round"/>
<path d="M33.7539 73.916H110.501" stroke="#F78239" stroke-width="1.5" stroke-linecap="round" stroke-linejoin="round"/>
<path d="M18.5971 97.0395H53.5084L63.1879 132.774M23.6543 78.2036V56.6409L29.7085 62.6326M143.252 79.6028V45.2676C143.252 37.1054 136.509 30.4142 128.243 30.4142C118.183 30.4142 106.383 48.9451 98.2986 56.5692H80.4986M143.27 79.6208C143.27 89.2002 135.349 97.0574 125.669 97.0574H90.7581L81.0786 132.792M120.612 78.2395V56.6768L114.558 62.6684M15.3162 104.574L7.25 134.335M128.914 104.574L136.98 134.335M128.261 2.25C121.845 2.25 116.624 7.39848 116.624 13.7668C116.624 20.1351 121.827 25.2836 128.261 25.2836C134.696 25.2836 139.899 20.1351 139.899 13.7668C139.899 7.39848 134.696 2.25 128.261 2.25Z" stroke="white" stroke-width="1.5" stroke-linecap="round" stroke-linejoin="round"/>
</svg>
