<svg width="264" height="186" viewBox="0 0 264 186" fill="none" xmlns="http://www.w3.org/2000/svg">
    <circle cx="8.44234" cy="8.44234" r="8.04235" transform="matrix(0.380584 0.924746 0.924746 -0.380584 240.344 25.7744)" fill="#1464FF" stroke="#1464FF" stroke-width="0.8"/>
    <circle cx="67.5388" cy="67.5388" r="67.5388" transform="matrix(0.380584 0.924746 0.924746 -0.380584 0 60.7822)" stroke="#1464FF" stroke-width="0.8"/>
    <circle cx="49.6892" cy="49.6892" r="49.6892" transform="matrix(0.380584 0.924746 0.924746 -0.380584 100.656 39.1807)" stroke="#1464FF" stroke-width="0.8"/>
    <circle cx="32.8045" cy="32.8045" r="32.8045" transform="matrix(0.380584 0.924746 0.924746 -0.380584 178.281 24.9697)" stroke="#1464FF" stroke-width="0.8"/>
</svg>