<svg width="493" height="290" viewBox="0 0 493 290" fill="none" xmlns="http://www.w3.org/2000/svg">
    <path d="M470.534 144.992C470.534 154.577 464.363 163.78 453.033 172.213C441.711 180.641 425.302 188.248 404.989 194.643C364.367 207.433 308.224 215.349 246.193 215.349C184.162 215.349 128.02 207.433 87.3981 194.643C67.0851 188.248 50.6757 180.641 39.3532 172.213C28.0233 163.78 21.8531 154.577 21.8531 144.992C21.8531 135.408 28.0233 126.205 39.3532 117.771C50.6757 109.343 67.0851 101.736 87.3981 95.3411C128.02 82.5519 184.162 74.6354 246.193 74.6354C308.224 74.6354 364.367 82.5519 404.989 95.3411C425.302 101.736 441.711 109.343 453.033 117.771C464.363 126.205 470.534 135.408 470.534 144.992Z" stroke="white" stroke-width="0.8"/>
    <path d="M413.694 144.992C413.694 152.093 409.115 158.931 400.661 165.214C392.215 171.491 379.967 177.161 364.797 181.929C334.461 191.465 292.528 197.369 246.192 197.369C199.856 197.369 157.922 191.465 127.587 181.929C112.416 177.161 100.169 171.491 91.7223 165.214C83.2684 158.931 78.6891 152.093 78.6891 144.992C78.6891 137.89 83.2684 131.052 91.7223 124.769C100.169 118.492 112.416 112.822 127.587 108.054C157.922 98.518 199.856 92.6139 246.192 92.6139C292.528 92.6139 334.461 98.518 364.797 108.054C379.967 112.822 392.215 118.492 400.661 124.769C409.115 131.052 413.694 137.89 413.694 144.992Z" stroke="white" stroke-width="0.8"/>
    <path d="M468.428 70.2142C471.625 79.7157 468.577 90.8943 460.164 103.026C451.756 115.151 438.036 128.156 420.046 141.262C384.07 167.471 331.096 194.025 269.651 214.701C208.206 235.377 149.955 246.248 105.453 247.119C83.2 247.555 64.4083 245.49 50.3813 240.914C36.3455 236.336 27.1598 229.274 23.9627 219.773C20.7655 210.271 23.8134 199.093 32.2264 186.961C40.6342 174.836 54.3545 161.831 72.3445 148.725C108.32 122.516 161.294 95.9614 222.739 75.2858C284.184 54.6102 342.436 43.7387 386.937 42.8674C409.191 42.4318 427.982 44.4973 442.009 49.0725C456.045 53.6507 465.231 60.7127 468.428 70.2142Z" stroke="white" stroke-width="0.8"/>
    <path d="M470.534 144.992C470.534 154.577 464.363 163.78 453.033 172.213C441.711 180.641 425.302 188.248 404.989 194.643C364.367 207.433 308.224 215.349 246.193 215.349C184.162 215.349 128.02 207.433 87.3981 194.643C67.0851 188.248 50.6757 180.641 39.3532 172.213C28.0233 163.78 21.8531 154.577 21.8531 144.992C21.8531 135.408 28.0233 126.205 39.3532 117.771C50.6757 109.343 67.0851 101.736 87.3981 95.3411C128.02 82.5519 184.162 74.6354 246.193 74.6354C308.224 74.6354 364.367 82.5519 404.989 95.3411C425.302 101.736 441.711 109.343 453.033 117.771C464.363 126.205 470.534 135.408 470.534 144.992Z" stroke="white" stroke-width="0.8"/>
    <path d="M468.428 70.2142C471.625 79.7157 468.577 90.8943 460.164 103.026C451.756 115.151 438.036 128.156 420.046 141.262C384.07 167.471 331.096 194.025 269.651 214.701C208.206 235.377 149.955 246.248 105.453 247.119C83.2 247.555 64.4083 245.49 50.3813 240.914C36.3455 236.336 27.1598 229.274 23.9627 219.773C20.7655 210.271 23.8134 199.093 32.2264 186.961C40.6342 174.836 54.3545 161.831 72.3445 148.725C108.32 122.516 161.294 95.9614 222.739 75.2858C284.184 54.6102 342.436 43.7387 386.937 42.8674C409.191 42.4318 427.982 44.4973 442.009 49.0725C456.045 53.6507 465.231 60.7127 468.428 70.2142Z" stroke="white" stroke-width="0.8"/>
    <path d="M413.694 144.992C413.694 152.093 409.115 158.931 400.661 165.214C392.215 171.491 379.967 177.161 364.797 181.929C334.461 191.465 292.528 197.369 246.192 197.369C199.856 197.369 157.922 191.465 127.587 181.929C112.416 177.161 100.169 171.491 91.7223 165.214C83.2684 158.931 78.6891 152.093 78.6891 144.992C78.6891 137.89 83.2684 131.052 91.7223 124.769C100.169 118.492 112.416 112.822 127.587 108.054C157.922 98.518 199.856 92.6139 246.192 92.6139C292.528 92.6139 334.461 98.518 364.797 108.054C379.967 112.822 392.215 118.492 400.661 124.769C409.115 131.052 413.694 137.89 413.694 144.992Z" stroke="white" stroke-width="0.8"/>
    <path d="M363.822 144.988C363.822 149.928 360.638 154.706 354.708 159.116C348.785 163.519 340.19 167.502 329.533 170.854C308.223 177.555 278.759 181.707 246.197 181.707C213.634 181.707 184.17 177.555 162.861 170.854C152.203 167.502 143.608 163.519 137.686 159.116C131.756 154.706 128.572 149.928 128.572 144.988C128.572 140.049 131.756 135.271 137.686 130.861C143.608 126.458 152.203 122.475 162.861 119.123C184.17 112.422 213.634 108.27 246.197 108.27C278.759 108.27 308.223 112.422 329.533 119.123C340.19 122.475 348.785 126.458 354.708 130.861C360.638 135.271 363.822 140.049 363.822 144.988Z" stroke="white" stroke-width="0.8"/>
    <path d="M312.203 144.991C312.203 147.689 310.464 150.331 307.146 152.797C303.836 155.258 299.02 157.491 293.033 159.374C281.064 163.137 264.505 165.47 246.196 165.47C227.887 165.47 211.328 163.137 199.359 159.374C193.372 157.491 188.557 155.258 185.246 152.797C181.928 150.331 180.189 147.689 180.189 144.991C180.189 142.294 181.928 139.652 185.246 137.185C188.557 134.725 193.372 132.492 199.359 130.609C211.328 126.846 227.887 124.512 246.196 124.512C264.505 124.512 281.064 126.846 293.033 130.609C299.02 132.492 303.836 134.725 307.146 137.185C310.464 139.652 312.203 142.294 312.203 144.991Z" stroke="white" stroke-width="0.8"/>
    <path d="M280.886 144.991C280.886 146.327 280.024 147.672 278.29 148.959C276.565 150.241 274.042 151.411 270.889 152.402C264.588 154.38 255.858 155.611 246.198 155.611C236.538 155.611 227.808 154.38 221.506 152.402C218.353 151.411 215.831 150.241 214.105 148.959C212.372 147.672 211.509 146.327 211.509 144.991C211.509 143.655 212.372 142.31 214.105 141.023C215.831 139.742 218.353 138.571 221.506 137.581C227.808 135.602 236.538 134.372 246.198 134.372C255.858 134.372 264.588 135.602 270.889 137.581C274.042 138.571 276.565 139.742 278.29 141.023C280.024 142.31 280.886 143.655 280.886 144.991Z" stroke="white" stroke-width="0.8"/>
    <path d="M264.06 144.994C264.06 145.611 263.666 146.27 262.784 146.932C261.91 147.588 260.619 148.196 258.988 148.714C255.731 149.748 251.207 150.394 246.191 150.394C241.176 150.394 236.651 149.748 233.394 148.714C231.763 148.196 230.472 147.588 229.598 146.932C228.716 146.27 228.322 145.611 228.322 144.994C228.322 144.377 228.716 143.718 229.598 143.056C230.472 142.4 231.763 141.792 233.394 141.274C236.651 140.24 241.176 139.594 246.191 139.594C251.207 139.594 255.731 140.24 258.988 141.274C260.619 141.792 261.91 142.4 262.784 143.056C263.666 143.718 264.06 144.377 264.06 144.994Z" stroke="white" stroke-width="0.8"/>
    <circle cx="245.903" cy="144.992" r="8.69962" fill="white"/>
    <circle cx="359.003" cy="134.551" r="3.47985" fill="white"/>
    <circle cx="180.365" cy="144.993" r="1.73992" fill="white"/>
    <circle cx="225.027" cy="136.288" r="1.15995" fill="white"/>
    <circle cx="232.276" cy="148.18" r="0.869962" fill="white"/>
    <circle cx="94.5345" cy="167.03" r="3.47985" fill="white"/>
    <circle cx="162.878" cy="79.0414" r="3.47985" fill="white"/>
    <circle cx="108.566" cy="247.897" r="3.47985" fill="white"/>
</svg>