<svg width="352" height="296" viewBox="0 0 352 296" fill="none" xmlns="http://www.w3.org/2000/svg">
    <path d="M344.376 1H7.52927C3.92326 1 1 3.92326 1 7.52927V233.961C1 237.567 3.92326 240.49 7.52927 240.49H344.376C347.982 240.49 350.905 237.567 350.905 233.961V7.52927C350.905 3.92326 347.982 1 344.376 1Z"
          fill="#0A1E46" stroke="white" stroke-width="0.74"/>
    <path d="M10.1836 10.7002L10.1836 196.576L342.242 196.576V10.7002L10.1836 10.7002Z" stroke="white"
          stroke-width="0.74"/>
    <path d="M1 209.537H350.905" stroke="white" stroke-width="0.74"/>
    <path d="M175.955 7.88634C177.039 7.88634 177.918 7.0076 177.918 5.92363C177.918 4.83966 177.039 3.96094 175.955 3.96094C174.871 3.96094 173.992 4.83966 173.992 5.92363C173.992 7.0076 174.871 7.88634 175.955 7.88634Z"
          fill="#0A1E46" stroke="white" stroke-width="0.74"/>
    <path d="M175.954 232.345C180.187 232.345 183.619 228.914 183.619 224.68C183.619 220.447 180.187 217.016 175.954 217.016C171.721 217.016 168.289 220.447 168.289 224.68C168.289 228.914 171.721 232.345 175.954 232.345Z"
          fill="#0A1E46" stroke="white" stroke-width="0.74"/>
    <path d="M218.2 240.49H134.223V294.92H218.2V240.49Z" fill="#0A1E46" stroke="white" stroke-width="0.74"/>
    <path d="M218.2 290.254H134.223V294.919H218.2V290.254Z" stroke="white" stroke-width="0.74"/>
</svg>
