<svg width="30" height="31" viewBox="0 0 30 31" fill="none" xmlns="http://www.w3.org/2000/svg">
    <circle cx="15" cy="15.5" r="15" fill="#1464FF"/>
    <path d="M22.2435 21.7916L18.3745 17.9226C19.2118 16.9121 19.6738 15.6128 19.6738 14.198C19.6738 10.9065 16.9597 8.19238 13.6682 8.19238C10.3477 8.19238 7.69141 10.9065 7.69141 14.198C7.69141 17.5184 10.3766 20.2036 13.6682 20.2036C15.0541 20.2036 16.3534 19.7417 17.3928 18.9043L21.2618 22.7733C21.4062 22.9177 21.5794 22.9754 21.7815 22.9754C21.9548 22.9754 22.128 22.9177 22.2435 22.7733C22.5322 22.5135 22.5322 22.0804 22.2435 21.7916ZM9.07732 14.198C9.07732 11.6572 11.1273 9.5783 13.697 9.5783C16.2379 9.5783 18.3167 11.6572 18.3167 14.198C18.3167 16.7677 16.2379 18.8177 13.697 18.8177C11.1273 18.8177 9.07732 16.7677 9.07732 14.198Z" fill="white"/>
</svg>