<svg width="259" height="252" viewBox="0 0 259 252" fill="none" xmlns="http://www.w3.org/2000/svg">
<path d="M32.7891 192.884C71.3322 189.56 77.0586 197.205 44.9026 232.218C70.2309 217.26 91.1543 227.232 102.167 250.5C110.426 225.016 128.046 221.138 154.475 232.218C140.159 209.504 119.236 192.884 164.937 192.884" stroke="#0A1E46" stroke-width="0.798091"/>
<path d="M0.306641 0.5C101.123 39.2823 104.208 140.564 101.123 198.822C101.858 168.112 130.321 106.14 219.569 106.14" stroke="#0A1E46" stroke-width="0.798091"/>
<circle cx="154.973" cy="120.194" r="38.3594" stroke="#0A1E46" stroke-width="0.798091"/>
<path d="M258.296 106.913C258.296 127.683 241.129 144.534 219.936 144.534C198.744 144.534 181.577 127.683 181.577 106.913C181.577 86.1424 198.744 69.2916 219.936 69.2916C241.129 69.2916 258.296 86.1424 258.296 106.913Z" stroke="#0A1E46" stroke-width="0.798091"/>
</svg>
